Assembly	stringtie2_braker_eggnog.cds
# contigs (>= 0 bp)	266606
# contigs (>= 1000 bp)	67920
# contigs (>= 5000 bp)	562
# contigs (>= 10000 bp)	23
# contigs (>= 25000 bp)	0
# contigs (>= 50000 bp)	0
Total length (>= 0 bp)	218282118
Total length (>= 1000 bp)	114008289
Total length (>= 5000 bp)	3566451
Total length (>= 10000 bp)	285651
Total length (>= 25000 bp)	0
Total length (>= 50000 bp)	0
# contigs	161900
Largest contig	16935
Total length	180252648
GC (%)	44.11
N50	1233
N90	618
auN	1568.2
L50	46361
L90	129411
# N's per 100 kbp	0.59
