All statistics are based on contigs of size >= 500 bp, unless otherwise noted (e.g., "# contigs (>= 0 bp)" and "Total length (>= 0 bp)" include all contigs).

Assembly                      # contigs (>= 0 bp)  # contigs (>= 1000 bp)  # contigs (>= 5000 bp)  # contigs (>= 10000 bp)  # contigs (>= 25000 bp)  # contigs (>= 50000 bp)  Total length (>= 0 bp)  Total length (>= 1000 bp)  Total length (>= 5000 bp)  Total length (>= 10000 bp)  Total length (>= 25000 bp)  Total length (>= 50000 bp)  # contigs  Largest contig  Total length  GC (%)  N50   N90  auN     L50    L90     # N's per 100 kbp
stringtie2_braker_eggnog.cds  266606               67920                   562                     23                       0                        0                        218282118               114008289                  3566451                    285651                      0                           0                           161900     16935           180252648     44.11   1233  618  1568.2  46361  129411  0.59             
