All statistics are based on contigs of size >= 500 bp, unless otherwise noted (e.g., "# contigs (>= 0 bp)" and "Total length (>= 0 bp)" include all contigs).

Assembly                       # contigs (>= 0 bp)  # contigs (>= 1000 bp)  # contigs (>= 5000 bp)  # contigs (>= 10000 bp)  # contigs (>= 25000 bp)  # contigs (>= 50000 bp)  Total length (>= 0 bp)  Total length (>= 1000 bp)  Total length (>= 5000 bp)  Total length (>= 10000 bp)  Total length (>= 25000 bp)  Total length (>= 50000 bp)  # contigs  Largest contig  Total length  GC (%)  N50   N90  auN     L50    L90     # N's per 100 kbp
stringtie2_braker_60_redo.cds  262730               66961                   558                     23                       0                        0                        215197919               112450836                  3545421                    285651                      0                           0                           159550     16935           177718164     44.11   1236  618  1570.0  45672  127521  0.59             
