xanadu-03

Start time:
Tue May  9 17:43:03 EDT 2023
Using standard /home/FCAM/abhattarai/anaconda3/envs/agat/lib/perl5/site_perl/auto/share/dist/AGAT/config.yaml file
Reading file augustus_eggnog_filtered.gff3
********************************************************************************
*                              - Start parsing -                               *
********************************************************************************
-------------------------- parse options and metadata --------------------------
=> Accessing the feature_levels YAML file
Using standard /home/FCAM/abhattarai/anaconda3/envs/agat/lib/perl5/site_perl/auto/share/dist/AGAT/feature_levels.yaml file
=> Attribute used to group features when no Parent/ID relationship exists (i.e common tag):
	* locus_tag
	* gene_id
=> merge_loci option deactivated
=> Machine information:
	This script is being run by perl v5.32.1
	Bioperl location being used: /home/FCAM/abhattarai/anaconda3/envs/agat/lib/perl5/site_perl/Bio/
	Operating system being used: linux 
=> Accessing Ontology
	No ontology accessible from the gff file header!
	We use the SOFA ontology distributed with AGAT:
		/home/FCAM/abhattarai/anaconda3/envs/agat/lib/perl5/site_perl/auto/share/dist/AGAT/so.obo
	Read ontology /home/FCAM/abhattarai/anaconda3/envs/agat/lib/perl5/site_perl/auto/share/dist/AGAT/so.obo:
		4 root terms, and 2596 total terms, and 1516 leaf terms
	Filtering ontology:
		We found 1861 terms that are sequence_feature or is_a child of it.
--------------------------------- parsing file ---------------------------------
=> Number of line in file: 2404191
=> Number of comment lines: 1
=> Fasta included: No
=> Number of features lines: 2404190
=> Number of feature type (3rd column): 9
	* Level1: 1 => gene
	* level2: 1 => mRNA
	* level3: 7 => start_codon five_prime_UTR three_prime_UTR exon CDS stop_codon intron
	* unknown: 0 => 
=> Version of the Bioperl GFF parser selected by AGAT: 3
********************************************************************************
*                               - End parsing -                                *
*                             done in 328 seconds                              *
********************************************************************************

********************************************************************************
*                               - Start checks -                               *
********************************************************************************
---------------------------- Check1: feature types -----------------------------
----------------------------------- ontology -----------------------------------
All feature types in agreement with the Ontology.
------------------------------------- agat -------------------------------------
AGAT can deal with all the encountered feature types (3rd column)
------------------------------ done in 0 seconds -------------------------------

------------------------------ Check2: duplicates ------------------------------
None found
------------------------------ done in 0 seconds -------------------------------

-------------------------- Check3: sequential bucket ---------------------------
Nothing to check as sequential bucket!
------------------------------ done in 0 seconds -------------------------------

--------------------------- Check4: l2 linked to l3 ----------------------------
No problem found
------------------------------ done in 4 seconds -------------------------------

--------------------------- Check5: l1 linked to l2 ----------------------------
No problem found
------------------------------ done in 1 seconds -------------------------------

--------------------------- Check6: remove orphan l1 ---------------------------
We remove only those not supposed to be orphan
None found
------------------------------ done in 1 seconds -------------------------------

------------------------- Check7: all level3 locations -------------------------
------------------------------ done in 25 seconds ------------------------------

------------------------------ Check8: check cds -------------------------------
No problem found
------------------------------ done in 6 seconds -------------------------------

----------------------------- Check9: check exons ------------------------------
No exons created
No exons locations modified
No supernumerary exons removed
No level2 locations modified
------------------------------ done in 34 seconds ------------------------------

----------------------------- Check10: check utrs ------------------------------
No UTRs created
No UTRs locations modified
No supernumerary UTRs removed
------------------------------ done in 17 seconds ------------------------------

------------------------ Check11: all level2 locations -------------------------
No problem found
------------------------------ done in 34 seconds ------------------------------

------------------------ Check12: all level1 locations -------------------------
No problem found
------------------------------ done in 5 seconds -------------------------------

---------------------- Check13: remove identical isoforms ----------------------
None found
------------------------------ done in 2 seconds -------------------------------
********************************************************************************
*                                - End checks -                                *
*                             done in 129 seconds                              *
********************************************************************************

=> OmniscientI total time: 457 seconds
Parsing Finished
Compute statistics
--------------------------------------------------------------------------------

Compute mrna with isoforms if any

Number of gene                               216079
Number of mrna                               219731
Number of mrnas with at least one utr        1629
Number of cds                                219731
Number of exon                               582431
Number of five_prime_utr                     1013
Number of intron                             364329
Number of start_codon                        218596
Number of stop_codon                         218964
Number of three_prime_utr                    616
Number of exon in cds                        582431
Number of exon in five_prime_utr             1013
Number of exon in three_prime_utr            616
Number of intron in cds                      362700
Number of intron in exon                     362700
Number of intron in intron                   233134
Number gene overlapping                      81
Number of single exon gene                   88651
Number of single exon mrna                   89047
mean mrnas per gene                          1.0
mean cdss per mrna                           1.0
mean exons per mrna                          2.7
mean five_prime_utrs per mrna                0.0
mean introns per mrna                        1.7
mean start_codons per mrna                   1.0
mean stop_codons per mrna                    1.0
mean three_prime_utrs per mrna               0.0
mean exons per cds                           2.7
mean exons per five_prime_utr                1.0
mean exons per three_prime_utr               1.0
mean introns in cdss per mrna                1.7
mean introns in exons per mrna               1.7
mean introns in introns per mrna             1.1
Total gene length                            1032333629
Total mrna length                            1095182775
Total cds length                             170402524
Total exon length                            174462241
Total five_prime_utr length                  2502294
Total intron length                          924780251
Total start_codon length                     655788
Total stop_codon length                      656892
Total three_prime_utr length                 1557423
Total intron length per cds                  920720534
Total intron length per exon                 920720534
Total intron length per intron               43669324
mean gene length                             4777
mean mrna length                             4984
mean cds length                              775
mean exon length                             299
mean five_prime_utr length                   2470
mean intron length                           2538
mean start_codon length                      3
mean stop_codon length                       3
mean three_prime_utr length                  2528
mean cds piece length                        292
mean five_prime_utr piece length             2470
mean three_prime_utr piece length            2528
mean intron in cds length                    2538
mean intron in exon length                   2538
mean intron in intron length                 187
Longest gene                                 472309
Longest mrna                                 472309
Longest cds                                  15351
Longest exon                                 18903
Longest five_prime_utr                       14337
Longest intron                               139988
Longest start_codon                          3
Longest stop_codon                           3
Longest three_prime_utr                      17766
Longest cds piece                            7436
Longest five_prime_utr piece                 14337
Longest three_prime_utr piece                17766
Longest intron into cds part                 139988
Longest intron into exon part                139988
Longest intron into intron part              6990
Shortest gene                                113
Shortest mrna                                113
Shortest cds                                 84
Shortest exon                                3
Shortest five_prime_utr                      35
Shortest intron                              6
Shortest start_codon                         3
Shortest stop_codon                          3
Shortest three_prime_utr                     6
Shortest cds piece                           3
Shortest five_prime_utr piece                35
Shortest three_prime_utr piece               6
Shortest intron into cds part                42
Shortest intron into exon part               42
Shortest intron into intron part             6

Re-compute mrna without isoforms asked. We remove shortest isoforms if any

Number of gene                               216079
Number of mrna                               216079
Number of mrnas with at least one utr        1603
Number of cds                                216079
Number of exon                               560236
Number of five_prime_utr                     994
Number of intron                             345760
Number of start_codon                        214965
Number of stop_codon                         215321
Number of three_prime_utr                    609
Number of exon in cds                        560236
Number of exon in five_prime_utr             994
Number of exon in three_prime_utr            609
Number of intron in cds                      344157
Number of intron in exon                     344157
Number of intron in intron                   217848
Number gene overlapping                      74
Number of single exon gene                   88678
Number of single exon mrna                   88678
mean mrnas per gene                          1.0
mean cdss per mrna                           1.0
mean exons per mrna                          2.6
mean five_prime_utrs per mrna                0.0
mean introns per mrna                        1.6
mean start_codons per mrna                   1.0
mean stop_codons per mrna                    1.0
mean three_prime_utrs per mrna               0.0
mean exons per cds                           2.6
mean exons per five_prime_utr                1.0
mean exons per three_prime_utr               1.0
mean introns in cdss per mrna                1.6
mean introns in exons per mrna               1.6
mean introns in introns per mrna             1.0
Total gene length                            1032333629
Total mrna length                            1031768896
Total cds length                             166444696
Total exon length                            170432291
Total five_prime_utr length                  2439937
Total intron length                          865324200
Total start_codon length                     644895
Total stop_codon length                      645963
Total three_prime_utr length                 1547658
Total intron length per cds                  861336605
Total intron length per exon                 861336605
Total intron length per intron               41298720
mean gene length                             4777
mean mrna length                             4774
mean cds length                              770
mean exon length                             304
mean five_prime_utr length                   2454
mean intron length                           2502
mean start_codon length                      3
mean stop_codon length                       3
mean three_prime_utr length                  2541
mean cds piece length                        297
mean five_prime_utr piece length             2454
mean three_prime_utr piece length            2541
mean intron in cds length                    2502
mean intron in exon length                   2502
mean intron in intron length                 189
Longest gene                                 472309
Longest mrna                                 472309
Longest cds                                  15351
Longest exon                                 18903
Longest five_prime_utr                       14337
Longest intron                               139988
Longest start_codon                          3
Longest stop_codon                           3
Longest three_prime_utr                      17766
Longest cds piece                            7436
Longest five_prime_utr piece                 14337
Longest three_prime_utr piece                17766
Longest intron into cds part                 139988
Longest intron into exon part                139988
Longest intron into intron part              6990
Shortest gene                                113
Shortest mrna                                113
Shortest cds                                 84
Shortest exon                                3
Shortest five_prime_utr                      35
Shortest intron                              6
Shortest start_codon                         3
Shortest stop_codon                          3
Shortest three_prime_utr                     6
Shortest cds piece                           3
Shortest five_prime_utr piece                35
Shortest three_prime_utr piece               6
Shortest intron into cds part                42
Shortest intron into exon part               42
Shortest intron into intron part             6

--------------------------------------------------------------------------------

Bye Bye.

End time:
Tue May  9 17:52:58 EDT 2023
