SRR13823648_stringtie.gtf
SRR4786281_stringtie.gtf
SRR4786284_stringtie.gtf
SRR5368574_stringtie.gtf
SRR5368575_stringtie.gtf
SRR5368576_stringtie.gtf
SRR5368577_stringtie.gtf
SRR5368578_stringtie.gtf
SRR5368579_stringtie.gtf
SRR5368580_stringtie.gtf
SRR5368581_stringtie.gtf
SRR5368582_stringtie.gtf
SRR13823648_stringtie.gtf
SRR4786281_stringtie.gtf
SRR4786284_stringtie.gtf
SRR5368574_stringtie.gtf
SRR5368575_stringtie.gtf
SRR5368576_stringtie.gtf
SRR5368577_stringtie.gtf
SRR5368578_stringtie.gtf
SRR5368579_stringtie.gtf
SRR5368580_stringtie.gtf
SRR5368581_stringtie.gtf
SRR5368582_stringtie.gtf
